[
    {
        "rubric": "Еда",
        "next_rubrics": [
            {
                "rubric": "Полуфабрикаты",
                "next_rubrics": [
                    {
                        "rubric": "Рыба"
                    },
                    {
                        "rubric": "Мясо"
                    }
                ]
            },
            {
                "rubric": "Фрукты"
            }
        ]
    },
    {
        "rubric": "Автомобили",
        "next_rubrics": [
            {
                "rubric": "Легковые автомобили",
                "next_rubrics": [
                    {
                        "rubric": "Ремонт автомобилей"
                    },
                    {
                        "rubric": "Запчасти автомобилей",
                        "next_rubrics": [
                            {
                                "rubric": "Отечественные запчасти"
                            },
                            {
                                "rubric": "Иностранные запчасти",
                                "next_rubrics": [
                                    {
                                        "rubric": "Запчасти для японских автомобилей",
                                        "next_rubrics": [
                                            {
                                                "rubric": "Запчасти Toyota"
                                            },
                                            {
                                                "rubric": "Запчасти Nissan"
                                            }
                                        ]
                                    },
                                    {
                                        "rubric": "Запчасти для европейских автомобилей",
                                        "next_rubrics": [
                                            {
                                                "rubric": "Запчасти Mercedes"
                                            },
                                            {
                                                "rubric": "Запчасти BMW"
                                            }
                                        ]
                                    }
                                ]
                            }
                        ]
                    }
                ]
            },
            {
                "rubric": "Грузовые",
                "next_rubrics": [
                    {
                        "rubric": "Ремонт грузовиков"
                    },
                    {
                        "rubric": "Продажа грузовиков"
                    }
                ]
            }
        ]
    },
    {
        "rubric": "Спорт"
    }

]
